﻿{
  "version": "1.0.0-*",
  "buildOptions": {
    "emitEntryPoint": true
  },

  "testRunner": "xunit",

  "dependencies": {
    "xunit": "2.2.0-beta1-build3239",
    "dotnet-test-xunit": "1.0.0-rc2-build10025"
  },
  "frameworks": {
    "netcoreapp1.0": {
      "dependencies": {
        "Microsoft.NETCore.App": {
          "type": "platform",
          "version": "1.0.0-rc2-*"
        }
      },
      "imports": [
        "dnxcore50",
        "portable-net45+win8"
      ]
    }
  }
}
